level;lat;lng;query;name
11;;;Place de l'étoile, Paris;Etoile
11;;;Place d'Italie, Paris;Italie
11;;;Place de la Nation, Paris;Nation
11;;;Châtelet, Paris;Châtelet
11;;;Gare du Nord, Paris;Gare du Nord
11;;;Gare Saint-Lazare, Paris;Saint-Lazare
11;;;Gare de l'Est, Paris;Gare de l'Est
11;;;Gare de Montparnasse, Paris;Montparnasse
